airCraftType,airCraftName
77L,Boeing 777-200LR
330,Airbus A330
703,Boeing 707-300
737,Boeing 737
738,Boeing 737-800
753,Boeing 757-300
764,Boeing 767-400
773,Boeing 777-300
788,Boeing 787-8
14Z,British Aerospace 146-300
31X,Airbus A310-200 Freighter
70F,Boeing 707 Freighter
74R,Boeing 747SR
74U,Boeing 747-300 / 747-200 SUD Freighter
A28,Antonov AN-28
A30,Antonov AN-30
ALM,Ayres LM-200 Loadmaster
APH,Eurocopter (Aerospatiale) SA330 Puma
AX1,Avro RJX100
B14,British Aerospace (BAC) One Eleven 400/475
B72,Boeing 720B
CNJ,Cessna Citation
CRJ,Canadair Regional Jet
CVY,Convair CV-580 / 600 / 640 Freighter
D1C,Douglas DC-10-30/40
D28,Fairchild Dornier Do.228
D6F,Douglas DC-6A/B/C Freighter
D8F,Douglas DC-8 all Freighters
D8Y,Douglas DC-8-71 / 72 / 73 Freighters
D94,Douglas DC-9-40
DC8,Douglas DC-8
DF3,Dassault (Breguet Mystere) Falcon 50 / 900
DH8,De Havilland Canada DHC-8 Dash 8 all models
DHB,De Havilland Canada DHC-2 Beaver / Turbo Beaver
EM2,Embraer EMB.120 Brasilia
F50,Fokker 50
JU5,Junkers Ju52/3M
L4T,LET 410
LOH,Lockheed L-182 / 282 / 382 (L-100) Hercules
M82,McDonnell Douglas MD82
MBH,Eurocopter (MBB) Bo.105
SF3,Saab SF340A/B
YN7,Xian Yunshuji Y7 / Antonov AN-24
YS1,NAMC YS-11
AT7,Aerospatiale/Alenia ATR 72-600
AT7,Bell 212
CJL,Cessna Citation III
CN7,Cessna Citation X
76H/76Z,Boeing 767-300ER
342,Airbus A340-200
345,Airbus A340-500
707,Boeing 707/720
14Y,British Aerospace 146-200
38F,Airbus A380 Freighter
72S,Boeing 727-200
73F,Boeing 737
74M,Boeing 747
74V,Boeing 747SR
74X,Boeing 747-200 Freighter
A4F,Antonov AN-124 Ruslan
ARJ,Avro RJ70 / RJ85 / RJ100 Avroliner
BE1,Beechcraft 1900/1900C/1900D
BES,Beechcfrat 1900/1900C
CR1,Canadair Regional Jet 100
DC3,Douglas DC-3
DH4,De Havilland Canada DHC-8-400 Dash 8Q
E90,Embraer 190
F22,Fokker F.28 Fellowship 2000
I14,Ilyushin IL114
IL7,Ilyushin IL76
J31,British Aerospace Jetstream 31
JST,British Aerospace Jetstream 31 / 32 / 41
LOM,Lockheed L-188 Electra Mixed Configuration
MU2,Mitsubishi Mu-2
PL2,Pilatus PC-12
S76,Sikorsky S-76
SSC,Aerospatiale/BAC Concorde
SWM,Fairchild (Swearingen)
TU5,Tupolev Tu154
350,Airbus A350
359,Airbus A350-900
CJ1,Cessna CitationJet
EPH,Embraer Phenom 100
319,Airbus A319
321,Airbus A321
333,Airbus A330-300
727,Boeing 727
732,Boeing 737-200
752,Boeing 757-200
763,Boeing 767-300
777,Boeing 777
31F,Airbus A310 Freighter
70M,Boeing 707
74E,Boeing 747-400
74F,Boeing 747
74T,Boeing 747-100 Freighter
76F,Boeing 767 Freighter
76X,Boeing 767-200 Freighter
76Y,Boeing 767-300 Freighter
AB3,Airbus A300
AN4,Antonov AN-24
AN7,Antonov AN-72 / AN-74
AT7,Aerospatiale/Alenia ATR 72
ATP,British Aerospace ATP
B13,British Aerospace (BAC) One Eleven 300
B15,British Aerospace (BAC) One Eleven 500 / RomBAC One Eleven
BET,Beechcraft light aircraft - twin turboprop engine
BNT,Pilatus Britten-Norman BN-2A Mk III Trislander
BUS,Bus
CN1,Cessna light aircraft - single piston engine
CNT,Cessna light aircraft - twin turboprop engines
CRV,Aerospatiale (Sud Aviation) Se.210 Caravelle
CWC,Curtiss C-46 Commando
D3F,Douglas DC-3 Freighter
D8X,Douglas DC-8-61 / 62 / 63 Freighters
D91,Douglas DC-9-10
D9C,Douglas DC-9-30 Freighter
DHD,De Havilland DH.104 Dove
DHT,De Havilland Canada DHC-6 Twin Otter
EMJ,Embraer 170/190
ERD,Embraer RJ140
F23,Fokker F.28 Fellowship 3000
L1F,Lockheed L-1011 Tristar Freighter
M1F,McDonnell Douglas MD11 Freighter
NDH,Eurocopter (Aerospatiale)
PAT,Piper light aircraft - twin turboprop engines
S61,Sikorsky S-61
YK2,Yakovlev Yak 42
GJ5,Gulfstream V
GJ6,Gulfstream G650
SU9,Sukhoi Superjet 100
76D,Boeing 767-400ER
146,British Aerospace 146
332,Airbus A330-200
340,Airbus A340
346,Airbus A340-600
735,Boeing 737-500
747,Boeing 747
772,Boeing 777-200
783,Boeing 787-3
787,Boeing 787
789,Boeing 787-9
72X,Boeing 727-100
73M,Boeing 737-200
74J,Boeing 747-400
75F,Boeing 757 Freighter
A40,Antonov AN-140
AB4,Airbus A300B2/B4/C4
AX8,Avro RJX85
BEH,Beechcraft 1900D
BH2,Bell Helicopters
CD2,Government Aircraft Factories N22B / N24A Nomad
CS2,CASA / IPTN 212 Aviocar
CV5,Convair CV-580
D10,Douglas DC-10
D11,Douglas DC-10-10/15
D92,Douglas DC-9-20
D95,Douglas DC-9-50
D9F,Douglas DC-9-40 Freighter
EMB,Embraer EMB.110 Bandeirnate
HEC,Helio H-250 Courier / H-295 / 385 Super Courier
HOV,Hovercraft
HS7,Hawker Siddeley HS.748
I9F,Ilyushin IL96 Freighters
I9M,Ilyushin IL96M
J41,British Aerospace Jetstream 41
L10,Lockheed L-1011 Tristar
M81,McDonnell Douglas MD81
M90,McDonnell Douglas MD90
PAG,Piper light aircraft
SHB,Shorts SC-5 Belfast
YN2,Harbin Yunshuji Y12
77F,Boeing 777-200LR
EMB,Embraer EMB 110 Bandeirante
100,Fokker 100
318,Airbus A318
343,Airbus A340-300
721,Boeing 727-100
722,Boeing 727-200
734,Boeing 737-400
742,Boeing 747-200
14F,British Aerospace 146 Freighter
72Y,Boeing 727-200
74D,Douglas DC-10
74L,Boeing 747SP
ABB,Airbus A300-600ST Beluga Freighter
ABY,Airbus Industrie A600-600 Freighter
AN6,Antonov AN-26 / AN-30 /AN-32
AR7,Avro RJ70 Avroliner
AT4,Aerospatiale/Alenia ATR 42-300 / 320
ATR,Aerospatiale/Alenia ATR 42/ ATR 72
BNI,Pilatus Britten-Norman BN-2A/B Islander
CCJ,Canadair Challenger
CCX,Canadair Global Express
CNC,Cessna light aircraft - single turboprop engine
CVF,Convair CV-240 / 440 / 580 / 600 / 640 Freighter
D1F,Douglas DC-10 all Freighters
D8L,Douglas DC-8-62
D93,Douglas DC-9-30
DC6,Douglas DC6A/B
DF2,Dassault (Breguet Mystere) Falcon 10 / 100 / 20 / 200 / 2000
DFL,Dassault (Breguet Mystere) Falcon
DH3,De Havilland Canada DHC-8-300 Dash 8 / 8Q
DHL,De Havilland Canada DHC-3 Turbo Otter
DHO,De Havilland Canada DHC-3 Otter / Turbo Otter
ER4,Embraer RJ145 Amazon
GRJ,Gulfstream Aerospace G-1159 Gulfstream II / III / IV / V
IL8,Ilyushin IL18
ILW,Ilyushin IL86
LCH,Launch - Boat
LOE,Lockheed L-188 Electra
M1M,McDonnell Douglas MD11 Mixed Configuration
M83,McDonnell Douglas MD83
M88,McDonnell Douglas MD88
NDC,Aerospatiale SN.601 Corvette
PA1,Piper light aircraft - single piston engine
SH3,Shorts SD.330
TU3,Tupolev Tu134
358,Airbus A350-800
AT7,Aerospatiale/Alenia ATR 72-200 series
CJ8,Cessna Citation Sovereign
76T/76W,Boeing 767-300ER
310,Airbus A310
312,Airbus A310-200
313,Airbus A310-300
733,Boeing 737-300
736,Boeing 737-600
741,Boeing 747-100
744,Boeing 747-400
757,Boeing 757
767,Boeing 767
31Y,Airbus A310-300 Freighter
32S,Airbus A318/319/320/321
72B,Boeing 727-100
72C,Boeing 727-200
72M,Boeing 727 Combi
74Y,Boeing 747-400 Freighter
A26,Antonov AN-26
AR1,Avro RJ100 Avroliner
AT5,Aerospatiale/Alenia ATR 42-500
B11,British Aerospace (BAC) One Eleven / RomBAC One Eleven
BE2,Beechcraft twin piston engines
CR2,Canadair Regional Jet 200
CVR,Convair CV-240 / 440 / 580 / 600 / 640
D1M,Douglas DC-10 all Combi models
D1Y,Douglas DC-10-30 / 40 Freighters
D38,Fairchild Dornier Do.328
D8M,Douglas DC-8 all Combi models
DH1,De Havilland Canada DHC-8-100 Dash 8 / 8Q
DH7,De Havilland Canada DHC-7 Dash 7
DHH,De Havilland DH.114 Heron
DHP,De Havilland Canada DHC-2 Beaver
DHR,De Havilland Canada DHC-2 Turbo-Beaver
ERJ,Embraer RJ135 / RJ140 / RJ145
F21,Fokker F.28 Fellowship 1000
F28,Fokker F.28 Fellowship
I93,Ilyushin IL96-300
IL6,Ilyushin IL62
IL9,Ilyushin IL96
L11,Lockheed L-1011 1 / 50 / 100 / 150 / 200 / 250 Tristar
M11,McDonnell Douglas MD11
M87,McDonnell Douglas MD87
MD9,MD Helicopters MD900 Explorer
PA2,Piper light aircraft - twin piston engines
PL6,Pilatus PC-6 Turbo Porter
PN6,Partenavia P.68
VCV,Vickers Viscount
WWP,Israel Aircraft Industries 1124 Westwind
YK4,Yakovlev Yak 40
A5F,Antonov An-225 Mriya
CRK,Canadair Regional Jet 1000
E90,Embraer 195
E90,Embraer Lineage 1000
E95,Embraer ERJ-195
E75,Embraer ERJ-175
142,British Aerospace 146-200
143,British Aerospace 146-300
380,Airbus A380
717,Boeing 717
731,Boeing 737-100
739,Boeing 737-900
72F,Boeing 727 Freighter
73H,Boeing 737-800
73W,Boeing 737-700
73X,Boeing 737-200
75M,Boeing 757-200
AB6,Airbus A300-600
ACT,Gulfstream/Rockwell (Aero) Turbo Commander
ANF,Antonov AN-12
AR8,Avro RJ85 Avroliner
BEC,Beechcraft light aircraft
BEP,Beechcraft light aircraft - single engine
CL4,Canadair CL-44
CN2,Cessna light aircraft - twin piston engines
CNA,Cessna light aircraft
CR7,Canadair Regional Jet 700
CS5,CASA / IPTN CN-235
CV4,Convair CV-440 Metropolitan
CVV,Convair CV-240 Freighter
D9F,Douglas DC-9 all Freighters
DHC,De Havilland Canada DHC-4 Caribou
E70,Embraer 170
F27,Fokker F.27 Friendship / Fairchild F.27
FRJ,Fairchild Dornier 328JET
I9Y,Ilyushin IL96T Freighter
J32,British Aerospace Jetstream 32
LMO,Limousine
S20,Saab 2000
SH6,Shorts SD.360
T20,Tupolev Tu-204 / Tu-214
388,Airbus A380-800
74H,Boeing 747-8
CJ2,Cessna Citation CJ2
EM2,Embraer EMB 120 Brasilia
ER3,Embraer Legacy 600
E70,Embraer 175
141,British Aerospace 146-100
320,Airbus A320
743,Boeing 747-300
762,Boeing 767-200
14X,British Aerospace 146-100
73G,Boeing 737-700
73Y,Boeing 737-300
74C,Boeing 747-200
A32,Antonov AN-32
ABF,Airbus Industrie A300 Freighter
ABX,Airbus Industrie A300C4/F4 Freighter
ACD,Gulfstream/Rockwell
ACP,Gulfstream/Rockwell (Aero) Commander
ARX,Avro RJX85 / RJX100
B12,British Aerospace (BAC) One Eleven 200
CR9,Canadair Regional Jet 900
CVX,Convair CV-440 Freighter
D1X,Douglas DC-10-10 Freighter
D8Q,Douglas DC-8-72
D8T,Douglas DC-8-50 Freighter
D9X,Douglas DC-9-10 Freighter
DC9,Douglas DC-9
DH2,De Havilland Canada DHC-8-200 Dash 8 / 8Q
DHS,De Havilland Canada DHC-3 Otter
ER3,Embraer RJ135
F24,Fokker F.28 Fellowship 4000
F70,Fokker 70
FA7,Fairchild Dornier 728JET
FK7,Fairchild FH.227
GRG,Grumman G.21 Goose
GRM,Grumman G.73 Turbo Mallard
GRS,Gulfstream Aerospace G-159 Gulfstream I
H25,British Aerospace (Hawker Siddeley) HS.125
I9X,Ilyushin IL96-300 Freighter
L15,Lockheed L-1011 500 Tristar
L49,Lockheed L-1049 Super Constellation
LOF,Lockheed L-188 Electra Freighter
LRJ,Gates Learjet
M80,McDonnell Douglas MD80
MIH,MIL Mi-8 / Mi-17 / Mi-171 / Mil-172
ND2,Aerospatiale (Nord) 262
NDE,Eurocopter (Aerospatiale)
RFS,Road Feeder Service - Cargo Truck
S58,Sikorsky S-58T
SHS,Shorts SC-7 Skyvan
TRN,Train
AT7,Aerospatiale/Alenia ATR 72-500
77W,Boeing 777-300ER
CJM,Cessna Citation Mustang
777-200 (772),Boeing
777-200,Boeing
777-200 (772),Boeing
0,Boeing 777-200 (772)
777-200 (772),Boeing
Airbus A330-200 (332) Version 1,Airbus A330-200 (332) Version 1
Airbus A330-200 (332) Version 1,Airbus A330-200 (332) Version 1
A330-200 (332),Airbus A330-200 (332)
TEST,TEST
TEST 1 ,TEST 1
Airbus A330-200 (332) Version 1,Airbus A330-200 (332) Version 1
Airbus A330-200 (332),Airbus A330-200 (332)
(TEST) 3,(TEST) 3
TEST TEST TEST (TEST) 3,TEST TEST TEST (TEST) 3
Embraer ERJ-190 (E90),Embraer ERJ-190 (E90)
Embraer ERJ-190 (E90),Embraer ERJ-190 (E90)
A320-200,Airbus A320-200
A321-100,Airbus A321-100
A321-200,Airbus A321-200
A319-100,Airbus A319-100
CS300\t,Bombardier CS300\t
8 Q400,Bombardier Dash 8 Q400
A330-900,Airbus A330-900neo
A350-900,Airbus A350-900 XWB
717-200,Boeing 717-200
737-900,Boeing 737-900ER
777-200ER,Boeing 777-200ER
CS100,Bombardier CS100
MD-88,McDonnell Douglas MD-88
MD-88,McDonnell Douglas MD-88
MD-90-30,McDonnell Douglas MD-90-30
737 MAX 8,Boeing 737 MAX 8
787-8 Dreamliner,Boeing 787-8 Dreamliner
787-9 Dreamliner,Boeing 787-9 Dreamliner
747-400ERF,Boeing 747-400ERF
747-8F,Boeing 747-8F
777F,Boeing 777F
BBJ1,Boeing BBJ1
XRS,Bombardier Global Express XRS
EC135,Eurocopter EC135
747-400F,Boeing 747-400F
C919,Comac C919
737-400C,Boeing 737-400C
737 MAX 9,Boeing 737 MAX 9
ERJ-170,Embraer ERJ-170
737-300F,Boeing 737-300F
ERJ-135,Embraer ERJ-135
ERJ-145,Embraer ERJ-145
777-9,Boeing 777-9
787-10,Boeing 787-10
MRJ-90,Mitsubishi MRJ-90
767-300BCF,Boeing 767-300BCF
767-300ERF,Boeing 767-300ERF
A350-1000,Airbus A350-1000
CRJ900,Bombardier CRJ900
A300B4-600R,Airbus A300B4-600R
A318-100,Airbus A318-100
CRJ700ER,Bombardier CRJ700ER
CRJ100ER,Bombardier CRJ100ER
CRJ200LR,Bombardier CRJ200LR
737-700 (737),Boeing 737-700 (737)
-747,Boeing 747-400 
