﻿welsh,ويلزي,FALSE
japanese,ياباني,FALSE
irish,ايرلندي,FALSE
full breakfast,إفطار كامل,FALSE
full board,جميع الوجبات,FALSE
full,كامل,FALSE
buffet,بوفيه,FALSE
breakfast + dinner,افطار وعشاء,FALSE
none,لا شىء,FALSE
hot breakfast,افطار ساخن,FALSE
half board lunch,فطور وغدا,FALSE
best available,افضل المتاح,FALSE
american,امريكي,FALSE
self catering,افطار,FALSE
indian,هندي,FALSE
eastern breakfast,افطار شرقي,FALSE
chinese breakfast,افطار صيني,FALSE
bed and breakfast,مبيت وافطار,FALSE
bed & breakfast,شامل الافطار,FALSE
indian vegtable,وجبة هندية نباتية,FALSE
full board beverages included,جميع الوجبات والمشروبات,FALSE
cold buffet,بوفيه وجبات باردة,FALSE
all inclusive special,جميع الوجبات,FALSE
scandinavian,إسكندينافي,FALSE
half board,افطار وعشاء,FALSE
continental,كونتيننتال,FALSE
asian,اسيوي,FALSE
all inclusive,جميع الوجبات,FALSE
room service,خدمة الغرف,FALSE
half board dinner,افطار وعشاء,FALSE
breakfast,الافطار,FALSE
boxed,مُعلب,FALSE
room only,غرفة فقط,FALSE
moroccan,مغربي,FALSE
bed and  breakfast,شامل الافطار,FALSE
asian breakfast,افطار اسيوي,FALSE
scottish breakfast,افطار اسكتلندي,FALSE
continental breakfast,افطار كونتيننتال,FALSE
breakfast and dinner,افطار وعشاء,FALSE
american buffet breakfast,بوفيه افطار امريكي,FALSE
english breakfast,افطار انجليزى,FALSE
continental buffet breakfast,بوفيه افطار كونتيننتال,FALSE
american breakfast,افطار امريكي,FALSE
all inclusive (gold),جميع الوجبات,FALSE
1 half board + 1 full board,وجبة افطار وعشاء (نصف إقامة) + وجبة افطار وغذاء وعشاء (اقامة كاملة),FALSE
scottish,الاسكتلندي,FALSE
israeli,اسرائيلي,FALSE
english,انجليزي,FALSE
buffet breakfast,بوفيه افطار,FALSE
all inclusive uai,شامل كلياً,FALSE
oriental breakfast,افطار شرقي,FALSE
early,باكراً,FALSE
dinner,عشاء,FALSE
chinese,صيني,FALSE
a la carte,وجبات حسب الطلب,FALSE
brunch,وجبة افطار وغذاء متأخرة,FALSE
breakfast lunch and dinner,افطار وغذاء وعشاء,FALSE
breakfast and lunch,افطار وغذاء,FALSE
thai breakfast,افطار تايلاندي,FALSE
backpack (japanese),حقيبة ظهر ( يابانية),FALSE
set breakfast,افطار بقائمة محددة,FALSE
irish breakfast,افطار ايرلندي,FALSE
half board with beverages included,افطار وعشاء شامل المشروبات,FALSE
international breakfast,افطار عالمي,FALSE
bed and hot buffet breakfast,شامل الافطار,FALSE
bed and buffet breakfast,شامل الافطار,FALSE